#include <stdio.h>
#include <stdlib.h>
typedef unsigned int uint;

typedef struct {
    uint magic;
    uint count;
    uint size;
} SectionInfo;

int main()
{
    FILE *fp1,*fp2;
    char fram[1000001];
    unsigned long pt,lth,strt,sk;
    short search;

    //system
    SectionInfo info;
    uint count, filesize;
    void *pmem;
    FILE *inFile, *outFile;
    //system


    printf("A31 diy tool by 昂达玩家固件小组：");
    printf("%c%c%c%c%c%c%c%c%c%c%c",105+10,100+10,47+50,67+40,81+20,100+3,113+3,119+1,50+7,40+8,30+19);
    printf(" ");
    printf("%c%c%c%c%c%c",94+4,31+70,27+70,134-20,103+10,119-6);
    printf(" and Gary\n特别向 全志Allwinner 致敬\n整个过程耗时较长，请保持耐心。\n\n");

    if((fp1=fopen("update.img","rb+"))==NULL)
    {
        printf("File update.img cannot be opened\n");
        exit(0);
    }
    else
        printf("File opened for reading\n");

    if((fp2=fopen("boot.img","wb"))==NULL)
    {
        printf("File cannot be opened\n");
        exit(0);
    }
    else
        printf("File opened for writing\n");

    //pt=0x10000;
    pt=0;
    search=0;

    fseek(fp1,pt,0);
    fread(&sk,1,1,fp1);
    while (search!=1)
    {
        while (sk!='b')
        {
            pt++;
            fseek(fp1,pt,0);
            fread(&sk,1,1,fp1);
        }
        //printf("r found %X\n",pt);

        fseek(fp1,(pt+1),0);
        fread(&sk,1,1,fp1);
        search=search+(sk=='o');
        fseek(fp1,(pt+2),0);
        fread(&sk,1,1,fp1);
        search=search+(sk=='o');
        fseek(fp1,(pt+3),0);
        fread(&sk,1,1,fp1);
        search=search+(sk=='t');
        fseek(fp1,(pt+4),0);
        fread(&sk,1,1,fp1);
        search=search+(sk=='.');
        fseek(fp1,(pt+5),0);
        fread(&sk,1,1,fp1);
        search=search+(sk=='f');
        fseek(fp1,(pt+6),0);
        fread(&sk,1,1,fp1);
        search=search+(sk=='e');
        fseek(fp1,(pt+7),0);
        fread(&sk,1,1,fp1);
        search=search+(sk=='x')-6;
        if (search!=1)
        {
            search=0;
            pt=pt+1;
            fseek(fp1,pt,0);
            fread(&sk,1,1,fp1);
        }

    }
    //printf("Boot.img found %X\n",pt); //printf("STR found %X\n",pt);
    //getch();

    lth=0;
    fseek(fp1,(pt+0x100),0);
    fread(&sk,1,1,fp1);
    lth=lth+sk;
    fread(&sk,1,1,fp1);
    lth=lth+sk*0x100;
    fread(&sk,1,1,fp1);
    lth=lth+sk*0x10000;
    fread(&sk,1,1,fp1);
    lth=lth+sk*0x1000000;
    if (sk==0) lth=lth%0x1000000;
    //printf("lth found %X\n",lth);
    //getch();

    strt=0;
    fseek(fp1,(pt+0x100+0x10),0);
    fread(&sk,1,1,fp1);
    strt=strt+sk;
    fread(&sk,1,1,fp1);
    strt=strt+sk*0x100;
    fread(&sk,1,1,fp1);
    strt=strt+sk*0x10000;
    fread(&sk,1,1,fp1);
    strt=strt+sk*0x1000000;
    if (sk==0) strt=strt%0x1000000;
    //printf("Strt found %X\n",strt);
    //getch();


    fseek(fp1,strt,0);
    while (lth>1000000)
    {
        fread(&fram,1000000,1,fp1);
        fwrite(&fram,1000000,1,fp2);
        lth=lth-1000000;
    }
    fread(&fram,lth,1,fp1);
    fwrite(&fram,lth,1,fp2);
    fclose(fp2);

    printf("Boot.img is ready!\n");




    if((fp2=fopen("recovery.img","wb"))==NULL)
    {
        printf("File cannot be opened\n");
        exit(0);
    }
    else
        printf("File opened for writing\n");

    //pt=0x10000;
    pt=0;
    search=0;

    fseek(fp1,pt,0);
    fread(&sk,1,1,fp1);
    while (search!=1)
    {
        while (sk!='r')
        {
            pt++;
            fseek(fp1,pt,0);
            fread(&sk,1,1,fp1);
        }
        //printf("r found %X\n",pt);

        fseek(fp1,(pt+1),0);
        fread(&sk,1,1,fp1);
        search=search+(sk=='e');
        fseek(fp1,(pt+2),0);
        fread(&sk,1,1,fp1);
        search=search+(sk=='c');
        fseek(fp1,(pt+3),0);
        fread(&sk,1,1,fp1);
        search=search+(sk=='o');
        fseek(fp1,(pt+4),0);
        fread(&sk,1,1,fp1);
        search=search+(sk=='v');
        fseek(fp1,(pt+5),0);
        fread(&sk,1,1,fp1);
        search=search+(sk=='e');
        fseek(fp1,(pt+6),0);
        fread(&sk,1,1,fp1);
        search=search+(sk=='r');
        fseek(fp1,(pt+7),0);
        fread(&sk,1,1,fp1);
        search=search+(sk=='y');
        fseek(fp1,(pt+8),0);
        fread(&sk,1,1,fp1);
        search=search+(sk=='.');
        fseek(fp1,(pt+9),0);
        fread(&sk,1,1,fp1);
        search=search+(sk=='f');
        fseek(fp1,(pt+10),0);
        fread(&sk,1,1,fp1);
        search=search+(sk=='e');
        fseek(fp1,(pt+11),0);
        fread(&sk,1,1,fp1);
        search=search+(sk=='x')-10;
        if (search!=1)
        {
            search=0;
            pt=pt+1;
            fseek(fp1,pt,0);
            fread(&sk,1,1,fp1);
        }

    }
    //printf("Recovery.img found %X\n",pt); //printf("STR found %X\n",pt);
    //getch();

    lth=0;
    fseek(fp1,(pt+0x100),0);
    fread(&sk,1,1,fp1);
    lth=lth+sk;
    fread(&sk,1,1,fp1);
    lth=lth+sk*0x100;
    fread(&sk,1,1,fp1);
    lth=lth+sk*0x10000;
    fread(&sk,1,1,fp1);
    lth=lth+sk*0x1000000;
    if (sk==0) lth=lth%0x1000000;
    //printf("lth found %X\n",lth);
    //getch();

    strt=0;
    fseek(fp1,(pt+0x100+0x10),0);
    fread(&sk,1,1,fp1);
    strt=strt+sk;
    fread(&sk,1,1,fp1);
    strt=strt+sk*0x100;
    fread(&sk,1,1,fp1);
    strt=strt+sk*0x10000;
    fread(&sk,1,1,fp1);
    strt=strt+sk*0x1000000;
    if (sk==0) strt=strt%0x1000000;
    //printf("Strt found %X\n",strt);
    //getch();


    fseek(fp1,strt,0);
    while (lth>1000000)
    {
        fread(&fram,1000000,1,fp1);
        fwrite(&fram,1000000,1,fp2);
        lth=lth-1000000;
    }
    fread(&fram,lth,1,fp1);
    fwrite(&fram,lth,1,fp2);
    fclose(fp2);

    printf("Recovery.img is ready!\n");






    if((fp2=fopen("system.img","wb"))==NULL)
    {
        printf("File cannot be opened\n");
        exit(0);
    }
    else
        printf("File opened for writing\n");

    //pt=0x10000;
    pt=0;
    search=0;

    fseek(fp1,pt,0);
    fread(&sk,1,1,fp1);
    while (search!=1)
    {
        while (sk!='s')
        {
            pt++;
            fseek(fp1,pt,0);
            fread(&sk,1,1,fp1);
        }
        //printf("r found %X\n",pt);

        fseek(fp1,(pt+1),0);
        fread(&sk,1,1,fp1);
        search=search+(sk=='y');
        fseek(fp1,(pt+2),0);
        fread(&sk,1,1,fp1);
        search=search+(sk=='s');
        fseek(fp1,(pt+3),0);
        fread(&sk,1,1,fp1);
        search=search+(sk=='t');
        fseek(fp1,(pt+4),0);
        fread(&sk,1,1,fp1);
        search=search+(sk=='e');
        fseek(fp1,(pt+5),0);
        fread(&sk,1,1,fp1);
        search=search+(sk=='m');
        fseek(fp1,(pt+6),0);
        fread(&sk,1,1,fp1);
        search=search+(sk=='.');
        fseek(fp1,(pt+7),0);
        fread(&sk,1,1,fp1);
        search=search+(sk=='f');
        fseek(fp1,(pt+8),0);
        fread(&sk,1,1,fp1);
        search=search+(sk=='e');
        fseek(fp1,(pt+9),0);
        fread(&sk,1,1,fp1);
        search=search+(sk=='x')-8;
        if (search!=1)
        {
            search=0;
            pt=pt+1;
            fseek(fp1,pt,0);
            fread(&sk,1,1,fp1);
        }

    }
    //printf("System.img found %X\n",pt); //printf("STR found %X\n",pt);
    //getch();

    lth=0;
    fseek(fp1,(pt+0x100),0);
    fread(&sk,1,1,fp1);
    lth=lth+sk;
    fread(&sk,1,1,fp1);
    lth=lth+sk*0x100;
    fread(&sk,1,1,fp1);
    lth=lth+sk*0x10000;
    fread(&sk,1,1,fp1);
    lth=lth+sk*0x1000000;
    if (sk==0) lth=lth%0x1000000;
    //printf("lth found %X\n",lth);
    //getch();

    strt=0;
    fseek(fp1,(pt+0x100+0x10),0);
    fread(&sk,1,1,fp1);
    strt=strt+sk;
    fread(&sk,1,1,fp1);
    strt=strt+sk*0x100;
    fread(&sk,1,1,fp1);
    strt=strt+sk*0x10000;
    fread(&sk,1,1,fp1);
    strt=strt+sk*0x1000000;
    if (sk==0) strt=strt%0x1000000;
    //printf("Strt found %X\n",strt);
    //getch();


    fseek(fp1,strt,0);
    while (lth>1000000)
    {
        fread(&fram,1000000,1,fp1);
        fwrite(&fram,1000000,1,fp2);
        lth=lth-1000000;
    }
    fread(&fram,lth,1,fp1);
    fwrite(&fram,lth,1,fp2);
    fclose(fp2);

    printf("System.img is ready!\n");





    fclose(fp1);



    //system
    if((inFile=fopen("system.img","rb+"))==NULL)
    {
        printf("File system.img cannot be opened\n");
        exit(0);
    }
    else
        printf("File opened for reading\n");

    if((outFile=fopen("systemrc.img","wb"))==NULL)
    {
        printf("File cannot be opened\n");
        exit(0);
    }
    else
        printf("File opened for writing\n");

    fseek(inFile, 0, SEEK_END);
    filesize = ftell(inFile);

    fseek(inFile, 0x1C, SEEK_SET);
    do {
        fread(&info, 1, sizeof(info), inFile);
        if (info.magic == 0x0000CAC1)
        {
            count = info.size - sizeof(info);
            pmem = malloc(count);
            fread(pmem, 1, count, inFile);
            fwrite(pmem, 1, count, outFile);
            free(pmem);
        }
        else if (info.magic == 0x0000CAC3)
        {
            fseek(outFile, info.count * 0x1000-1, SEEK_CUR);
            count = 0;
            fwrite(&count, 1, 1, outFile);
        }
        else
            break;


    }
    while (ftell(inFile)<filesize);

    fclose(inFile);
    fclose(outFile);
    //system

    //getchar();
}
